…
``` r
my_data['YEAR_BUILT_027']
```

    ## # A tibble: 14,271 x 1
    ##    YEAR_BUILT_027
    ##             <dbl>
    ##  1           1932
    ##  2           1974
    ##  3           1948
    ##  4           1979
    ##  5           1977
    ##  6           1980
    ##  7           1980
    ##  8           1994
    ##  9           1999
    ## 10           2006
    ## # ... with 14,261 more rows

``` r
# Build year
```

``` r
my_data['STRUCTURE_NUMBER_008']
```

    ## # A tibble: 14,271 x 1
    ##    STRUCTURE_NUMBER_008
    ##    <chr>               
    ##  1 00000000000F303     
    ##  2 00000000000F304     
    ##  3 00000000000F310     
    ##  4 00000000000F311     
    ##  5 00000000000F315     
    ##  6 00000000000F317     
    ##  7 00000000000F318     
    ##  8 00000000000F321     
    ##  9 00000000000F323     
    ## 10 00000000000F324     
    ## # ... with 14,261 more rows

``` r
# Bridge ID
```

``` r
my_data['COUNTY_CODE_003']
```

    ## # A tibble: 14,271 x 1
    ##    COUNTY_CODE_003
    ##              <dbl>
    ##  1              51
    ##  2              51
    ##  3             115
    ##  4             115
    ##  5               3
    ##  6               3
    ##  7               3
    ##  8             115
    ##  9               3
    ## 10               3
    ## # ... with 14,261 more rows
…
